^F:\VISUAL STUDIO 2015\PROJECTS\TEXT COMPRESSOR RELEASE\TEXT COMPRESSOR RELEASE\MAIN.CPP
F:\VISUAL STUDIO 2015\PROJECTS\TEXT COMPRESSOR RELEASE\TEXT COMPRESSOR RELEASE\RELEASE\VC140.PDB
F:\VISUAL STUDIO 2015\PROJECTS\TEXT COMPRESSOR RELEASE\TEXT COMPRESSOR RELEASE\RELEASE\MAIN.OBJ
